alarm_name,namespace,metric_name,statistic,period,comparison_operator,threshold,datapoints_to_alarm,evaluation_periods,treat_missing_data,alarm_actions,alarm_description,dimensions_name,dimensions
cwalr-ec2-Rrenkei-prd02-GW01-StatusCheckFailed,AWS/EC2,StatusCheckFailed,Maximum,60,GreaterThanOrEqualToThreshold,1,1,1,breaching,sns-Rrenkei-prd02-01,cwalr-ec2-Rrenkei-prd02-GW01-StatusCheckFailed,InstanceId,i-0ded630915ab49eeb
cwalr-ec2-Rrenkei-prd02-GW02-StatusCheckFailed,AWS/EC2,StatusCheckFailed,Maximum,60,GreaterThanOrEqualToThreshold,1,1,1,breaching,sns-Rrenkei-prd02-01,cwalr-ec2-Rrenkei-prd02-GW02-StatusCheckFailed,InstanceId,i-02492eff2494cfb09
cwalr-efs-Rrenkei-prd02-GW-PercentIOLimit,AWS/EFS,PercentIOLimit,Average,60,GreaterThanOrEqualToThreshold,90,3,3,notBreaching,sns-Rrenkei-prd02-01,cwalr-efs-Rrenkei-prd02-GW-PercentIOLimit,FileSystemId,fs-0f80b6499522babc5
cwalr-efs-Rrenkei-prd02-ClientConnections,AWS/EFS,ClientConnections,Sum,60,LessThanThreshold,1,1,1,notBreaching,sns-Rrenkei-prd02-01,cwalr-efs-Rrenkei-prd02-ClientConnections,FileSystemId,fs-0f80b6499522babc5
cwalr-kdf-Rrenkei-prd02-cwltoS3-DataFreshness,AWS/Firehose,DeliveryToS3.DataFreshness,Maximum,60,GreaterThanOrEqualToThreshold,960,1,1,notBreaching,sns-Rrenkei-prd02-01,cwalr-kdf-Rrenkei-prd02-cwltoS3-DataFreshness,DeliveryStreamName,fds-Rrenkei-prd02
